<?xml version="1.0" encoding="iso-8859-1"?>
<!-- Generator: Adobe Illustrator 19.1.0, SVG Export Plug-In . SVG Version: 6.00 Build 0)  -->
<svg version="1.1" id="Capa_1" xmlns="http://www.w3.org/2000/svg" xmlns:xlink="http://www.w3.org/1999/xlink" x="0px" y="0px"
	 viewBox="0 0 297 297" style="enable-background:new 0 0 297 297;" xml:space="preserve">
<g>
	<path style="fill:#FF8200;" d="M54.103,55.449c18.45,23.761,30.189,53.114,31.853,85.051h54.211V16.248
		C107.167,18.263,76.387,32.885,54.103,55.449z"/>
	<path style="fill:#FF8200;" d="M69.925,140.5c-1.582-27.137-11.154-52.162-26.397-72.751
		C27.804,88.142,17.882,113.221,16.249,140.5H69.925z"/>
	<path style="fill:#FF8200;" d="M156.167,16.248V140.5h54.877c1.664-31.937,13.07-61.29,31.52-85.051
		C220.28,32.885,190.167,18.263,156.167,16.248z"/>
	<path style="fill:#FF8200;" d="M253.473,67.749c-15.243,20.589-24.815,45.614-26.397,72.751h53.676
		C279.118,113.221,269.196,88.142,253.473,67.749z"/>
	<path style="fill:#FF8200;" d="M242.564,241.551c-18.45-23.761-29.855-53.115-31.52-85.051h-54.877v124.252
		C190.167,278.737,220.28,264.115,242.564,241.551z"/>
	<path style="fill:#FF8200;" d="M227.075,156.5c1.583,27.137,11.154,52.161,26.398,72.751
		c15.723-20.393,25.645-45.472,27.277-72.751H227.075z"/>
	<path style="fill:#FF8200;" d="M140.167,280.752V156.5H85.956c-1.665,31.936-13.403,61.29-31.853,85.051
		C76.387,264.115,107.167,278.737,140.167,280.752z"/>
	<path style="fill:#FF8200;" d="M69.925,156.5H16.249c1.633,27.279,11.555,52.358,27.277,72.751
		C58.771,208.661,68.342,183.637,69.925,156.5z"/>
	<path d="M297,148.5C297,66.617,230.383,0,148.5,0S0,66.617,0,148.5S66.617,297,148.5,297S297,230.383,297,148.5z M211.044,140.5
		h-54.877V16.248c34,2.015,64.113,16.637,86.397,39.201C224.114,79.21,212.708,108.563,211.044,140.5z M253.473,67.749
		c15.724,20.393,25.646,45.472,27.278,72.751h-53.676C228.657,113.363,238.229,88.338,253.473,67.749z M140.167,140.5H85.956
		c-1.664-31.937-13.403-61.29-31.853-85.051c22.284-22.564,53.064-37.187,86.064-39.201V140.5z M69.925,140.5H16.249
		c1.633-27.279,11.555-52.358,27.278-72.751C58.771,88.338,68.343,113.363,69.925,140.5z M69.925,156.5
		c-1.583,27.137-11.154,52.161-26.398,72.751c-15.723-20.393-25.645-45.472-27.277-72.751H69.925z M85.956,156.5h54.211v124.252
		c-33-2.015-63.78-16.637-86.064-39.201C72.553,217.79,84.291,188.436,85.956,156.5z M156.167,156.5h54.877
		c1.665,31.936,13.07,61.29,31.52,85.051c-22.284,22.564-52.397,37.187-86.397,39.201V156.5z M227.075,156.5h53.676
		c-1.633,27.279-11.555,52.358-27.277,72.751C238.229,208.661,228.658,183.637,227.075,156.5z"/>
</g>
<g>
</g>
<g>
</g>
<g>
</g>
<g>
</g>
<g>
</g>
<g>
</g>
<g>
</g>
<g>
</g>
<g>
</g>
<g>
</g>
<g>
</g>
<g>
</g>
<g>
</g>
<g>
</g>
<g>
</g>
</svg>
